<?xml version="1.0" encoding="utf-8"?>
<!-- Generator: Adobe Illustrator 19.2.0, SVG Export Plug-In . SVG Version: 6.00 Build 0)  -->
<svg version="1.1" id="Capa_1" xmlns="http://www.w3.org/2000/svg" xmlns:xlink="http://www.w3.org/1999/xlink" x="0px" y="0px"
	 viewBox="0 0 100 100" style="enable-background:new 0 0 100 100;" xml:space="preserve">
<style type="text/css">
	.st0{fill:#FFFFFF;}
</style>
<g>
	<g id="account-circle">
		<path class="st0" d="M50,4C24.7,4,4,24.7,4,50s20.7,46,46,46s46-20.7,46-46S75.3,4,50,4z M50,17.8c7.8,0,13.8,6,13.8,13.8
			s-6,13.8-13.8,13.8s-13.8-6-13.8-13.8S42.2,17.8,50,17.8z M50,83.1c-11.5,0-21.6-6-27.6-14.7c0-9.2,18.4-14.3,27.6-14.3
			s27.6,5.1,27.6,14.3C71.6,77.1,61.5,83.1,50,83.1z"/>
	</g>
</g>
</svg>
