<?xml version="1.0" encoding="utf-8"?>
<!-- Generator: Adobe Illustrator 19.2.0, SVG Export Plug-In . SVG Version: 6.00 Build 0)  -->
<svg version="1.1" id="Layer_1" xmlns="http://www.w3.org/2000/svg" xmlns:xlink="http://www.w3.org/1999/xlink" x="0px" y="0px"
	 viewBox="0 0 690 274" style="enable-background:new 0 0 690 274;" xml:space="preserve">
<style type="text/css">
	.st0{fill:#FFFFFF;}
	.st1{font-family:'Cubano-Regular';}
	.st2{font-size:116.8097px;}
	.st3{letter-spacing:2;}
</style>
<path class="st0" d="M0,0"/>
<path class="st0" d="M0,0"/>
<polygon class="st0" points="3.8,2 3.8,21 3.8,59.6 22.8,59.6 22.8,21 61.4,21 61.4,2 22.8,2 "/>
<polygon class="st0" points="669,252 630.4,252 630.4,271 669,271 688,271 688,252 688,213.4 669,213.4 "/>
<text transform="matrix(1 0 0 1 42 124.2832)"><tspan x="0" y="0" class="st0 st1 st2 st3">COMMENT</tspan><tspan x="0" y="110.7" class="st0 st1 st2 st3">S’inscrire</tspan></text>
</svg>
